%YAML 1.1
%TAG !u! tag:unity3d.com,2011:
--- !u!114 &11400000
MonoBehaviour:
  m_ObjectHideFlags: 0
  m_CorrespondingSourceObject: {fileID: 0}
  m_PrefabInstance: {fileID: 0}
  m_PrefabAsset: {fileID: 0}
  m_GameObject: {fileID: 0}
  m_Enabled: 1
  m_EditorHideFlags: 0
  m_Script: {fileID: 11500000, guid: bbb281ee3bf0b054c82ac2347e9e782c, type: 3}
  m_Name: Default Local Group
  m_EditorClassIdentifier: 
  m_GroupName: Default Local Group
  m_Data:
    m_SerializedData: []
  m_GUID: 053c987248cf0d14eba5fc53e6c49c11
  m_SerializeEntries: []
  m_ReadOnly: 0
  m_Settings: {fileID: 11400000, guid: 466b6aafe9d4cdb4e9438070cb8a7ebc, type: 2}
  m_SchemaSet:
    m_Schemas:
    - {fileID: 11400000, guid: 191dc02a4ec26cc4380b739f08f50834, type: 2}
    - {fileID: 11400000, guid: f8cb842acdf15d44c9d10c3a79fd49fb, type: 2}
