%YAML 1.1
%TAG !u! tag:unity3d.com,2011:
--- !u!114 &11400000
MonoBehaviour:
  m_ObjectHideFlags: 0
  m_CorrespondingSourceObject: {fileID: 0}
  m_PrefabInstance: {fileID: 0}
  m_PrefabAsset: {fileID: 0}
  m_GameObject: {fileID: 0}
  m_Enabled: 1
  m_EditorHideFlags: 0
  m_Script: {fileID: 11500000, guid: bbb281ee3bf0b054c82ac2347e9e782c, type: 3}
  m_Name: Remote CDN Hosted
  m_EditorClassIdentifier: 
  m_GroupName: Remote CDN Hosted
  m_Data:
    m_SerializedData: []
  m_GUID: 34a6150d991b8a348bd530172f2dadf0
  m_SerializeEntries:
  - m_GUID: 89348065eaf07e34e8722be28c18974b
    m_Address: Assets/Apps/Textures
    m_ReadOnly: 0
    m_SerializedLabels: []
  - m_GUID: ecc119e11db29bc4a95e628c01d5566c
    m_Address: Assets/Apps/Sound
    m_ReadOnly: 0
    m_SerializedLabels: []
  - m_GUID: 6ea315d0fd7389c41b19996891e99ae3
    m_Address: Assets/Apps/Scenes
    m_ReadOnly: 0
    m_SerializedLabels: []
  - m_GUID: bcdf2c8356adb5e42b8d7a5eaa4faf85
    m_Address: Assets/Apps/Prefab
    m_ReadOnly: 0
    m_SerializedLabels: []
  - m_GUID: 5db2f2b4c9dbeb1408d03756a1bfcf78
    m_Address: Assets/Apps/Model
    m_ReadOnly: 0
    m_SerializedLabels: []
  - m_GUID: 3e870e4bc4ed07c4dbf24f2a6731f1f4
    m_Address: Assets/Apps/Materials
    m_ReadOnly: 0
    m_SerializedLabels: []
  - m_GUID: 348a7a2203f918147b82aa838a8e35a0
    m_Address: Assets/Apps/Animation
    m_ReadOnly: 0
    m_SerializedLabels: []
  m_ReadOnly: 0
  m_Settings: {fileID: 11400000, guid: 466b6aafe9d4cdb4e9438070cb8a7ebc, type: 2}
  m_SchemaSet:
    m_Schemas:
    - {fileID: 11400000, guid: f69a778bc57299445883d3d303480363, type: 2}
    - {fileID: 11400000, guid: 117223310ddff4e4391ad40188d52ccc, type: 2}
